\relax 
\citation{gartner}
\citation{embedconcept}
\citation{embedsingle}
\citation{Richardbarry}
\citation{Nicolasmelot}
\@writefile{toc}{\contentsline {section}{\numberline {I}Introduction}{1}}
\newlabel{chap:intro}{{I}{1}}
\@writefile{toc}{\contentsline {subsection}{\numberline {\unhbox \voidb@x \hbox {I-A}}Background}{1}}
\newlabel{sec:background}{{\unhbox \voidb@x \hbox {I-A}}{1}}
\@writefile{toc}{\contentsline {subsection}{\numberline {\unhbox \voidb@x \hbox {I-B}}Scope of project}{1}}
\newlabel{sec:scopeproject}{{\unhbox \voidb@x \hbox {I-B}}{1}}
\citation{rtosconcept}
\citation{freertos}
\citation{freertosmanual}
\citation{freertosmanual}
\citation{freertos}
\citation{Nicolasmelot}
\@writefile{toc}{\contentsline {subsection}{\numberline {\unhbox \voidb@x \hbox {I-C}}The organization of the report}{2}}
\newlabel{sec:papersctructure}{{\unhbox \voidb@x \hbox {I-C}}{2}}
\@writefile{toc}{\contentsline {section}{\numberline {II}Real-time Operating System}{2}}
\newlabel{chap:rtos-concept}{{II}{2}}
\@writefile{toc}{\contentsline {subsection}{\numberline {\unhbox \voidb@x \hbox {II-A}}Introduction}{2}}
\newlabel{sec:rtos-introduction}{{\unhbox \voidb@x \hbox {II-A}}{2}}
\@writefile{toc}{\contentsline {subsection}{\numberline {\unhbox \voidb@x \hbox {II-B}}Kernel and Design}{2}}
\newlabel{sec:rtos-kernel}{{\unhbox \voidb@x \hbox {II-B}}{2}}
\@writefile{toc}{\contentsline {subsection}{\numberline {\unhbox \voidb@x \hbox {II-C}}Task Control}{2}}
\newlabel{sec:rtos-task}{{\unhbox \voidb@x \hbox {II-C}}{2}}
\@writefile{lof}{\contentsline {figure}{\numberline {1}{\ignorespaces FreeRTOS Kernel Design.}}{2}}
\newlabel{fig:freertos-design}{{1}{2}}
\@writefile{lof}{\contentsline {figure}{\numberline {2}{\ignorespaces FreeRTOS Context-switch State}}{2}}
\newlabel{fig:running-state}{{2}{2}}
\@writefile{toc}{\contentsline {subsection}{\numberline {\unhbox \voidb@x \hbox {II-D}}Queue and Scheduling}{2}}
\newlabel{sec:rtos-scheduling}{{\unhbox \voidb@x \hbox {II-D}}{2}}
\citation{embedsingle}
\@writefile{toc}{\contentsline {subsection}{\numberline {\unhbox \voidb@x \hbox {II-E}}Memory Management}{3}}
\newlabel{sec:rtos-memory}{{\unhbox \voidb@x \hbox {II-E}}{3}}
\@writefile{toc}{\contentsline {subsection}{\numberline {\unhbox \voidb@x \hbox {II-F}}Interrupt Management}{3}}
\newlabel{sec:rtos-interrupt}{{\unhbox \voidb@x \hbox {II-F}}{3}}
\@writefile{toc}{\contentsline {subsection}{\numberline {\unhbox \voidb@x \hbox {II-G}}Implementation}{3}}
\newlabel{sec:rtos-implementation}{{\unhbox \voidb@x \hbox {II-G}}{3}}
\@writefile{toc}{\contentsline {section}{\numberline {III}Our Proposal}{3}}
\newlabel{chap:optimal-rtos}{{III}{3}}
\@writefile{lof}{\contentsline {figure}{\numberline {3}{\ignorespaces FreeRTOS Kernel and Implementation}}{3}}
\newlabel{fig:rtos-kernel}{{3}{3}}
\@writefile{lof}{\contentsline {figure}{\numberline {4}{\ignorespaces General architecture.}}{3}}
\newlabel{fig:general-architecture}{{4}{3}}
\@writefile{toc}{\contentsline {subsection}{\numberline {\unhbox \voidb@x \hbox {III-A}}Core and Command Control}{3}}
\newlabel{chap:core-command-control}{{\unhbox \voidb@x \hbox {III-A}}{3}}
\@writefile{lof}{\contentsline {figure}{\numberline {5}{\ignorespaces Hardware Framework.}}{4}}
\newlabel{fig:freertos-hardware}{{5}{4}}
\@writefile{toc}{\contentsline {subsection}{\numberline {\unhbox \voidb@x \hbox {III-B}}Set up experiment}{4}}
\newlabel{chap:setup-experiment}{{\unhbox \voidb@x \hbox {III-B}}{4}}
\@writefile{lot}{\contentsline {table}{\numberline {I}{\ignorespaces Summary of experimental tools}}{4}}
\newlabel{tools}{{I}{4}}
\@writefile{toc}{\contentsline {subsection}{\numberline {\unhbox \voidb@x \hbox {III-C}}Customize FreeRTOS and LED Control}{4}}
\newlabel{chap:customize-freertos}{{\unhbox \voidb@x \hbox {III-C}}{4}}
\@writefile{lof}{\contentsline {figure}{\numberline {6}{\ignorespaces Program Control inside FreeRTOS.}}{4}}
\newlabel{fig:program}{{6}{4}}
\@writefile{toc}{\contentsline {subsection}{\numberline {\unhbox \voidb@x \hbox {III-D}}Web GUI and Mobile App control}{4}}
\newlabel{chap:mobile-app}{{\unhbox \voidb@x \hbox {III-D}}{4}}
\newlabel{chap:workflow}{{\unhbox \voidb@x \hbox {III-D}}{4}}
\citation{embedconcept}
\citation{rtosconcept}
\citation{milikovic}
\citation{gartner}
\citation{Richardbarry}
\citation{Richardbarry2}
\citation{Nicolasmelot}
\citation{master-freertos}
\citation{freertos}
\@writefile{lof}{\contentsline {figure}{\numberline {7}{\ignorespaces Mobile GUI Control.}}{5}}
\newlabel{fig:mobile}{{7}{5}}
\@writefile{lof}{\contentsline {figure}{\numberline {8}{\ignorespaces GUI Control Flowchart}}{5}}
\newlabel{fig:workflow-web}{{8}{5}}
\@writefile{toc}{\contentsline {subsection}{\numberline {\unhbox \voidb@x \hbox {III-E}}Optimization}{5}}
\newlabel{chap:optimisation}{{\unhbox \voidb@x \hbox {III-E}}{5}}
\@writefile{lot}{\contentsline {table}{\numberline {II}{\ignorespaces Code amount before and after optimizing}}{5}}
\newlabel{optimisation}{{II}{5}}
\@writefile{toc}{\contentsline {subsection}{\numberline {\unhbox \voidb@x \hbox {III-F}}Analysis of results}{5}}
\newlabel{chap:analysis}{{\unhbox \voidb@x \hbox {III-F}}{5}}
\@writefile{toc}{\contentsline {section}{\numberline {IV}Related work}{5}}
\newlabel{chap:relatework}{{IV}{5}}
\citation{esp8266}
\citation{esp-open-rtos}
\citation{sourcecode}
\bibcite{sourcecode}{1}
\bibcite{master-freertos}{2}
\bibcite{esp8266}{3}
\bibcite{gartner}{4}
\bibcite{embedsingle}{5}
\bibcite{Richardbarry}{6}
\bibcite{Richardbarry2}{7}
\bibcite{freertosmanual}{8}
\bibcite{Nicolasmelot}{9}
\bibcite{milikovic}{10}
\bibcite{freertos}{11}
\bibcite{esp-open-rtos}{12}
\bibcite{embedconcept}{13}
\bibcite{rtosconcept}{14}
\@writefile{lof}{\contentsline {figure}{\numberline {9}{\ignorespaces Complete system}}{6}}
\newlabel{fig:finalresult}{{9}{6}}
\@writefile{toc}{\contentsline {section}{\numberline {V}Conclusion}{6}}
\newlabel{chap:conclusion}{{V}{6}}
\@writefile{toc}{\contentsline {section}{\numberline {VI}Team Collaboration}{6}}
\newlabel{chap:collaboration}{{VI}{6}}
\@writefile{lot}{\contentsline {table}{\numberline {III}{\ignorespaces Team Collaboration}}{6}}
\newlabel{teamcollaboration}{{III}{6}}
\@writefile{toc}{\contentsline {section}{References}{6}}
